%YAML 1.1
%TAG !u! tag:unity3d.com,2011:
--- !u!114 &-3244983482880011073
MonoBehaviour:
  m_ObjectHideFlags: 2
  m_CorrespondingSourceObject: {fileID: 0}
  m_PrefabInstance: {fileID: 0}
  m_PrefabAsset: {fileID: 0}
  m_GameObject: {fileID: 0}
  m_Enabled: 1
  m_EditorHideFlags: 0
  m_Script: {fileID: 11500000, guid: 536372c49e1ca914d822849d36de938c, type: 3}
  m_Name: iPhone Providers
  m_EditorClassIdentifier: 
  m_AutomaticLoading: 0
  m_AutomaticRunning: 0
  m_Loaders: []
--- !u!114 &-1305019792641888217
MonoBehaviour:
  m_ObjectHideFlags: 2
  m_CorrespondingSourceObject: {fileID: 0}
  m_PrefabInstance: {fileID: 0}
  m_PrefabAsset: {fileID: 0}
  m_GameObject: {fileID: 0}
  m_Enabled: 1
  m_EditorHideFlags: 0
  m_Script: {fileID: 11500000, guid: 179fc3111e144bc4688dca4038b3265d, type: 3}
  m_Name: iPhone Settings
  m_EditorClassIdentifier: 
  m_LoaderManagerInstance: {fileID: -3244983482880011073}
  m_InitManagerOnStart: 0
  m_AdaptivePerformanceManager: {fileID: 0}
  m_ProviderIntialized: 0
  m_ProviderStarted: 0
--- !u!114 &11400000
MonoBehaviour:
  m_ObjectHideFlags: 2
  m_CorrespondingSourceObject: {fileID: 0}
  m_PrefabInstance: {fileID: 0}
  m_PrefabAsset: {fileID: 0}
  m_GameObject: {fileID: 0}
  m_Enabled: 1
  m_EditorHideFlags: 0
  m_Script: {fileID: 11500000, guid: cb0ece14d1f711a4fb9325ca819dee95, type: 3}
  m_Name: AdaptivePerformanceGeneralSettings
  m_EditorClassIdentifier: 
  Keys: 0400000001000000
  Values:
  - {fileID: -1305019792641888217}
  - {fileID: 2605362707724187651}
--- !u!114 &2605362707724187651
MonoBehaviour:
  m_ObjectHideFlags: 2
  m_CorrespondingSourceObject: {fileID: 0}
  m_PrefabInstance: {fileID: 0}
  m_PrefabAsset: {fileID: 0}
  m_GameObject: {fileID: 0}
  m_Enabled: 1
  m_EditorHideFlags: 0
  m_Script: {fileID: 11500000, guid: 179fc3111e144bc4688dca4038b3265d, type: 3}
  m_Name: Standalone Settings
  m_EditorClassIdentifier: 
  m_LoaderManagerInstance: {fileID: 2902581302731376792}
  m_InitManagerOnStart: 0
  m_AdaptivePerformanceManager: {fileID: 0}
  m_ProviderIntialized: 0
  m_ProviderStarted: 0
--- !u!114 &2902581302731376792
MonoBehaviour:
  m_ObjectHideFlags: 2
  m_CorrespondingSourceObject: {fileID: 0}
  m_PrefabInstance: {fileID: 0}
  m_PrefabAsset: {fileID: 0}
  m_GameObject: {fileID: 0}
  m_Enabled: 1
  m_EditorHideFlags: 0
  m_Script: {fileID: 11500000, guid: 536372c49e1ca914d822849d36de938c, type: 3}
  m_Name: Standalone Providers
  m_EditorClassIdentifier: 
  m_InitializationComplete: 0
  m_AutomaticLoading: 0
  m_AutomaticRunning: 0
  m_Loaders: []
